UART/uart.vcd
$date
    Oct  8, 2025  09:12:12
$end
$version
    TOOL:	xmsim	23.09-s001
$end
$timescale
    1 ns
$end

$scope module uart_top $end
$var reg       1 !    clk $end
$var reg       1 "    rst $end

$scope module uart_intf $end
$var wire      1 #    clk  $end
$var wire      1 $    rst  $end
$var reg       1 %    PSEL $end
$var reg       8 &    tx_data [7:0] $end
$var reg       1 '    tx_valid $end
$var reg       1 (    tx_ready $end
$var reg       1 )    txd $end
$var reg       1 *    rxd $end
$var reg       8 +    rx_data [7:0] $end
$var reg       1 ,    rx_valid $end
$upscope $end


$scope module uart_design $end
$var parameter 32 -    CLK_FREQ $end
$var parameter 32 .    BAUD_RATE $end
$var wire      1 #    clk  $end
$var wire      1 /    reset_n  $end
$var wire      8 0    tx_data [7:0] $end
$var wire      1 1    tx_valid  $end
$var reg       1 2    tx_ready $end
$var reg       1 3    txd $end
$var wire      1 4    rxd  $end
$var reg       8 5    rx_data [7:0] $end
$var reg       1 6    rx_valid $end
$var parameter 32 7    BAUD_DIV $end
$var reg      13 8    baud_cnt [12:0] $end
$var reg       1 9    baud_tick $end
$var reg       3 :    tx_state [2:0] $end
$var reg       3 ;    tx_bit_cnt [2:0] $end
$var reg       8 <    tx_shift [7:0] $end
$var reg       3 =    rx_state [2:0] $end
$var reg       3 >    rx_bit_cnt [2:0] $end
$var reg       8 ?    rx_shift [7:0] $end
$var reg      16 @    rx_sample_cnt [15:0] $end
$var reg       1 A    rx_valid_reg $end
$upscope $end

$upscope $end


$scope module uvm_pkg $end
$var parameter 32 B    UVM_HDL_MAX_WIDTH $end
$var parameter 328 C    uvm_mgc_copyright $end
$var parameter 336 D    uvm_cdn_copyright $end
$var parameter 224 E    uvm_snps_copyright $end
$var parameter 328 F    uvm_cy_copyright $end
$var parameter 256 G    uvm_nv_copyright $end
$var parameter 200 H    uvm_revision $end
$var reg       1 I    uvm_start_uvm_declarations $end
$var parameter 32 J    UVM_STREAMBITS $end
$var parameter 32 K    UVM_RADIX $end
$var parameter 32 L    UVM_MACRO_NUMFLAGS $end
$var parameter 32 M    UVM_DEFAULT $end
$var parameter 32 N    UVM_ALL_ON $end
$var parameter 32 O    UVM_FLAGS_ON $end
$var parameter 32 P    UVM_FLAGS_OFF $end
$var parameter 32 Q    UVM_COPY $end
$var parameter 32 R    UVM_NOCOPY $end
$var parameter 32 S    UVM_COMPARE $end
$var parameter 32 T    UVM_NOCOMPARE $end
$var parameter 32 U    UVM_PRINT $end
$var parameter 32 V    UVM_NOPRINT $end
$var parameter 32 W    UVM_RECORD $end
$var parameter 32 X    UVM_NORECORD $end
$var parameter 32 Y    UVM_PACK $end
$var parameter 32 Z    UVM_NOPACK $end
$var parameter 32 [    UVM_PHYSICAL $end
$var parameter 32 \    UVM_ABSTRACT $end
$var parameter 32 ]    UVM_READONLY $end
$var parameter 32 ^    UVM_NODEFPRINT $end
$var parameter 32 _    UVM_MACRO_EXTRAS $end
$var parameter 32 `    UVM_FLAGS $end
$var parameter 32 a    UVM_UNPACK $end
$var parameter 32 b    UVM_CHECK_FIELDS $end
$var parameter 32 c    UVM_END_DATA_EXTRA $end
$var parameter 32 d    UVM_START_FUNCS $end
$var parameter 32 e    UVM_SET $end
$var parameter 32 f    UVM_SETINT $end
$var parameter 32 g    UVM_SETOBJ $end
$var parameter 32 h    UVM_SETSTR $end
$var parameter 32 i    UVM_END_FUNCS $end
$var integer  32 j    uvm_global_random_seed $end
$var parameter 32 k    UVM_STR_CRC_POLYNOMIAL $end
$var parameter 32 l    UVM_STDOUT $end
$var parameter 32 m    UVM_LINE_WIDTH $end
$var parameter 32 n    UVM_NUM_LINES $end
$var parameter 32 o    UVM_SMALL_STRING $end
$var parameter 32 p    UVM_LARGE_STRING $end
$var integer  32 q    UVM_UNBOUNDED_CONNECTIONS $end

$scope function uvm_hdl_check_path $end
$var integer  32 r    uvm_hdl_check_path $end
$upscope $end


$scope function uvm_hdl_deposit $end
$var integer  32 s    uvm_hdl_deposit $end
$var reg      1024 t    value [1023:0] $end
$upscope $end


$scope function uvm_hdl_force $end
$var integer  32 u    uvm_hdl_force $end
$var reg      1024 v    value [1023:0] $end
$upscope $end


$scope task uvm_hdl_force_time $end
$var reg      1024 w    value [1023:0] $end
$var time     64 x    force_time $end
$upscope $end


$scope function uvm_hdl_release_and_read $end
$var integer  32 y    uvm_hdl_release_and_read $end
$var reg      1024 z    value [1023:0] $end
$upscope $end


$scope function uvm_hdl_release $end
$var integer  32 {    uvm_hdl_release $end
$upscope $end


$scope function uvm_hdl_read $end
$var integer  32 |    uvm_hdl_read $end
$var reg      1024 }    value [1023:0] $end
$upscope $end


$scope function uvm_dpi_get_next_arg_c $end
$var integer  32 ~    init $end
$upscope $end


$scope function uvm_dpi_get_next_arg $end
$var integer  32 !!   init $end
$upscope $end


$scope function uvm_dpi_regexec $end
$var integer  32 "!   uvm_dpi_regexec $end
$upscope $end


$scope function uvm_re_match $end
$var integer  32 #!   uvm_re_match $end
$upscope $end


$scope function uvm_regcomp $end
$var reg      64 $!   uvm_regcomp [63:0] $end
$upscope $end


$scope function uvm_regexec $end
$var integer  32 %!   uvm_regexec $end
$var reg      64 &!   re [63:0] $end
$var integer  32 '!   nmatch $end
$var reg      64 (!   ptr [63:0] $end
$var integer  32 )!   eflags $end
$upscope $end


$scope task uvm_regfree $end
$var reg      64 *!   re [63:0] $end
$upscope $end


$scope function uvm_radix_to_string $end
$var reg      32 +!   radix [31:0] $end
$upscope $end


$scope function uvm_instance_scope $end
$var reg       8 ,!   c [7:0] $end
$var integer  32 -!   pos $end
$upscope $end


$scope function uvm_oneway_hash $end
$var integer  32 .!   uvm_oneway_hash $end
$var integer  32 /!   seed $end
$var reg       1 0!   msb $end
$var reg       8 1!   current_byte [7:0] $end
$var reg      32 2!   crc1 [31:0] $end
$upscope $end


$scope function uvm_create_random_seed $end
$var integer  32 3!   uvm_create_random_seed $end
$upscope $end


$scope function uvm_leaf_scope $end
$var reg       8 4!   scope_separator [7:0] $end
$var reg       8 5!   bracket_match [7:0] $end
$var integer  32 6!   pos $end
$var integer  32 7!   bmatches $end
$upscope $end


$scope function uvm_bitstream_to_string $end
$var reg      4096 8!   value [4095:0] $end
$var integer  32 9!   size $end
$var reg      32 :!   radix [31:0] $end

$scope begin unmblk1 $end
$var reg      4096 ;!   _t [4095:0] $end
$upscope $end

$upscope $end


$scope function uvm_integral_to_string $end
$var reg      64 <!   value [63:0] $end
$var integer  32 =!   size $end
$var reg      32 >!   radix [31:0] $end

$scope begin unmblk1 $end
$var reg      64 ?!   _t [63:0] $end
$upscope $end

$upscope $end


$scope function uvm_vector_to_string $end
$var reg      4096 @!   value [4095:0] $end
$var integer  32 A!   size $end
$var reg      32 B!   radix [31:0] $end
$upscope $end


$scope function uvm_get_array_index_int $end
$var integer  32 C!   uvm_get_array_index_int $end
$var reg       1 D!   is_wildcard $end
$var integer  32 E!   i $end
$upscope $end


$scope function uvm_get_array_index_string $end
$var reg       1 F!   is_wildcard $end
$var integer  32 G!   i $end
$upscope $end


$scope function uvm_is_array $end
$var reg       1 H!   uvm_is_array $end
$upscope $end


$scope task set_global_timeout $end
$var time     64 I!   timeout $end
$var reg       1 J!   overridable $end
$upscope $end


$scope task set_global_stop_timeout $end
$var time     64 K!   timeout $end
$upscope $end


$scope function uvm_report_enabled $end
$var integer  32 L!   uvm_report_enabled $end
$var integer  32 M!   verbosity $end
$var reg       2 N!   severity [1:0] $end
$upscope $end


$scope task uvm_report $end
$var reg       2 O!   severity [1:0] $end
$var integer  32 P!   verbosity $end
$var integer  32 Q!   line $end
$var reg       1 R!   report_enabled_checked $end
$upscope $end


$scope task m__uvm_report_dpi $end
$var integer  32 S!   severity $end
$var integer  32 T!   verbosity $end
$var integer  32 U!   line $end
$upscope $end


$scope task uvm_report_info $end
$var integer  32 V!   verbosity $end
$var integer  32 W!   line $end
$var reg       1 X!   report_enabled_checked $end
$upscope $end


$scope task uvm_report_warning $end
$var integer  32 Y!   verbosity $end
$var integer  32 Z!   line $end
$var reg       1 [!   report_enabled_checked $end
$upscope $end


$scope task uvm_report_error $end
$var integer  32 \!   verbosity $end
$var integer  32 ]!   line $end
$var reg       1 ^!   report_enabled_checked $end
$upscope $end


$scope task uvm_report_fatal $end
$var integer  32 _!   verbosity $end
$var integer  32 `!   line $end
$var reg       1 a!   report_enabled_checked $end
$upscope $end


$scope function uvm_string_to_severity $end
$var reg       1 b!   uvm_string_to_severity $end
$var reg       2 c!   sev [1:0] $end
$upscope $end


$scope task set_config_int $end
$var reg      4096 d!   value [4095:0] $end
$upscope $end


$scope task set_config_object $end
$var reg       1 e!   clone $end
$upscope $end


$scope function uvm_is_match $end
$var reg       1 f!   uvm_is_match $end
$upscope $end


$scope task uvm_wait_for_nba_region $end
$var integer  32 g!   nba $end
$var integer  32 h!   next_nba $end
$upscope $end

$upscope $end

$enddefinitions $end
$dumpvars
b11100000111111111 p
b1110111111 o
b1111000 n
b1111000 m
b1 l
b100110000010001110110110110 k
b100000000000001000 i
b100000000000001000 h
b100000000000000111 g
b100000000000000110 f
b100000000000000110 e
b100000000000000101 d
b100000000000000100 c
b100000000000000011 b
b100000000000000010 a
b100000000000000001 `
b100000000000000000 _
b10000000000000000 ^
b1000000000000000 ]
b100000000000000 \
b10000000000000 [
b1000000000 Z
b100000000 Y
b10000000 X
b1000000 W
b100000 V
b10000 U
b1000 T
b100 S
b10 R
b1 Q
b0 P
b101010101 O
b101010101 N
b10101010101 M
b10001 L
b1111000000000000000000000000 K
b1000000000000 J
b1010100000000000000000000000000000z110000000000000000000000000001010000000000000000000000000000000z110000000000000000000000000001001100000000000000000000000000000z1100000000000000000000000000001011 H
b0z110000000000000000000000000001010000000000000000000000000000000z110000000000000000000000000001001100000000000000000000000000000z110000000000000000000000000000101100000000000000000000000000000z1100000000000000000000000000001010 G
b1010100000000000000000000000000000z110000000000000000000000000001010000000000000000000000000000000z110000000000000000000000000001001100000000000000000000000000000z110000000000000000000000000000101100000000000000000000000000000z110000000000000000000000000000101000000000000000000000000000000z1100000000000000000000000000001001 F
b101100000000000000000000000000000z110000000000000000000000000000101000000000000000000000000000000z110000000000000000000000000000100100000000000000000000000000000z1100000000000000000000000000001000 E
b1001100000000000000000000000000000z110000000000000000000000000000101100000000000000000000000000000z110000000000000000000000000000101000000000000000000000000000000z110000000000000000000000000000100100000000000000000000000000000z110000000000000000000000000000100000000000000000000000000000000z1100000000000000000000000000000111 D
b101100000000000000000000000000000z110000000000000000000000000000101000000000000000000000000000000z110000000000000000000000000000100100000000000000000000000000000z110000000000000000000000000000100000000000000000000000000000000z110000000000000000000000000000011100000000000000000000000000000z1100000000000000000000000000000110 C
b10000000000 B
b1010001011000 7
b10010110000000 .
b10111110101111000010000000 -
0!
1"
0#
1$
x%
bx &
x'
1(
1)
x*
b0 +
0,
0/
bx 0
x1
12
13
x4
b0 5
06
b0 8
09
b0 :
b0 ;
b0 <
b0 =
b0 >
b0 ?
b0 @
0A
1I
b101011011100011001010010100011 j
b11111111111111111111111111111111 q
b0 r
b0 s
bx t
b0 u
bx v
bx w
bx x
b0 y
bx z
b0 {
b0 |
bx }
b0 ~
b0 !!
b0 "!
b0 #!
b0 $!
b0 %!
b0 &!
b0 '!
b0 (!
b0 )!
b0 *!
b0 +!
b111010 ,!
b1000 -!
b11011110100000111000011011101111 .!
b101011011100011001010010100011 /!
00!
b1101000 1!
b10110011000011011110111001001100 2!
b10010111000000101011010010110101 3!
b101110 4!
b0 5!
b1111 6!
b11111111111111111111111111111111 7!
bx 8!
b0 9!
b0 :!
bx ;!
b10 <!
b100000 =!
b10000000000000000000000000 >!
bx ?!
bx @!
b0 A!
b0 B!
b0 C!
0D!
b0 E!
0F!
b0 G!
0H!
bx I!
0J!
bx K!
b0 L!
b111110100 M!
b0 N!
b0 O!
b0 P!
b0 Q!
0R!
b0 S!
b0 T!
b0 U!
b0 V!
b0 W!
0X!
b0 Y!
b0 Z!
0[!
b0 \!
b0 ]!
0^!
b0 _!
b0 `!
0a!
0b!
b0 c!
bx d!
0e!
0f!
b100100 g!
b100100 h!
$end
#10
1!
1#
b0 &
0'
1*
14
01
b0 0
#20
0!
0#
#30
1!
1#
#40
0!
0#
#50
1!
1#
#60
0!
0#
#70
1!
1#
#80
0!
0#
#90
1!
1#
#100
0"
0!
0#
0$
1/
#110
1!
1#
b10101000 &
1'
b1 8
11
b10101000 0
#120
0!
0#
#130
1!
1#
0'
b10 8
01
#140
0!
0#
#150
1!
1#
b10101000 +
1,
b11 8
#160
0!
0#
#170
1!
1#
b100101 h!
0,
b100101 g!
b100 8
#180
0!
0#
#190
1!
1#
b101 8
#200
0!
0#
#210
1!
1#
b110 8
#220
0!
0#
#230
1!
1#
b111 8
#240
0!
0#
#250
1!
1#
b1000 8
#260
0!
0#
#270
1!
b100110 h!
b100111 h!
1#
b100111 g!
b1001 8
b101000 h!
b101001 h!
b101001 g!
b10010111000000101011010011000110 3!
b11000111101011110010000100110010 3!
b1010100011010000111010010011001 3!
b1110101110001101111000100101001 3!
b1100011000110100010010010011000 3!
b1100000000010111001001110100100 3!
b110101101000010000100111011101 3!
b10001000001111011101010001110100 3!
b1010010101111001110111011101110 3!
b11101101001011111110110110000101 3!
b10111100101001011100011001101100 3!
b101010001000100000011110110100 3!
b10010111110110001011011010101101 3!
b10101011111011100110110100111001 3!
b10100111100110100000110111111010 3!
b11111111111000001011011101010 3!
b11011100001000000001110111010110 3!
b1110001100000001101100111001110 3!
b11111001101101100010110011110101 3!
b111000000100100000001011010111 3!
b11100100000100110001101101001110 3!
b10010111000000101011010011011000 3!
b11000111101011110010000101000100 3!
b1010100011010000111010010101011 3!
b1110101110001101111000100111011 3!
b1100011000110100010010010101010 3!
b1100000000010111001001110110110 3!
b110101101000010000100111101111 3!
b10001000001111011101010010000110 3!
b1010010101111001110111100000000 3!
b11101101001011111110110110010111 3!
b10111100101001011100011001111110 3!
b101010001000100000011111000110 3!
b10010111110110001011011010111111 3!
b10101011111011100110110101001011 3!
b10100111100110100000111000001100 3!
b11111111111000001011011111100 3!
b11011100001000000001110111101000 3!
b1110001100000001101100111100000 3!
b11111001101101100010110100000111 3!
b111000000100100000001011101001 3!
b11100100000100110001101101100000 3!
b10010111000000101011010011101011 3!
b11000111101011110010000101010111 3!
b1010100011010000111010010111110 3!
b1110101110001101111000101001110 3!
b1100011000110100010010010111101 3!
b1100000000010111001001111001001 3!
b110101101000010000101000000010 3!
b10001000001111011101010010011001 3!
b1010010101111001110111100010011 3!
b11101101001011111110110110101010 3!
b10111100101001011100011010010001 3!
b101010001000100000011111011001 3!
b10010111110110001011011011010010 3!
b10101011111011100110110101011110 3!
b10100111100110100000111000011111 3!
b11111111111000001011100001111 3!
b11011100001000000001110111111011 3!
b1110001100000001101100111110011 3!
b11111001101101100010110100011010 3!
b111000000100100000001011111100 3!
b11100100000100110001101101110011 3!
b11100100000100110001101110000111 3!
b111000000100100000001100010000 3!
b11111001101101100010110100101110 3!
b1110001100000001101101000000111 3!
b1010100011010000111010011010010 3!
b10010111000000101011010011111111 3!
b11000111101011110010000101101011 3!
b11011100001000000001111000001111 3!
b10001000001111011101010010101101 3!
b1110101110001101111000101100010 3!
b1100011000110100010010011010001 3!
b1100000000010111001001111011101 3!
b110101101000010000101000010110 3!
b1010010101111001110111100100111 3!
b11101101001011111110110110111110 3!
b11111111111000001011100100011 3!
b10111100101001011100011010100101 3!
b101010001000100000011111101101 3!
b10010111110110001011011011100110 3!
b10101011111011100110110101110010 3!
b10100111100110100000111000110011 3!
b1100100 M!
b1 L!
b1100100 V!
b1101001111 W!
1X!
